{
  "project_info": {
    "project_number": "40718578730",
    "project_id": "kollusplayer",
    "storage_bucket": "kollusplayer.appspot.com"
  },
  "client": [
    {
      "client_info": {
        "mobilesdk_app_id": "1:40718578730:android:2c4a5ceee2cbce19343f53",
        "android_client_info": {
          "package_name": "com.example.collus_player"
        }
      },
      "oauth_client": [
        {
          "client_id": "40718578730-7mb595mae54niuit8eiudhmecbkllu76.apps.googleusercontent.com",
          "client_type": 3
        }
      ],
      "api_key": [
        {
          "current_key": "AIzaSyAHIVBI5SgElLLHp-pciJzv-pUN_zoKsLY"
        }
      ],
      "services": {
        "appinvite_service": {
          "other_platform_oauth_client": [
            {
              "client_id": "40718578730-7mb595mae54niuit8eiudhmecbkllu76.apps.googleusercontent.com",
              "client_type": 3
            }
          ]
        }
      }
    }
  ],
  "configuration_version": "1"
}